{
    "KPlugin": {
        "Authors": [
            {
                "Email": "kde@david-redondo.de",
                "Name": "David Redondo",
                "Name[ar]": "ديفيد ريدوندو",
                "Name[az]": "David Redondo",
                "Name[be]": "David Redondo",
                "Name[bg]": "David Redondo",
                "Name[ca@valencia]": "David Redondo",
                "Name[ca]": "David Redondo",
                "Name[cs]": "David Redondo",
                "Name[de]": "David Redondo",
                "Name[en_GB]": "David Redondo",
                "Name[eo]": "David Redondo",
                "Name[es]": "David Redondo",
                "Name[et]": "David Redondo",
                "Name[eu]": "David Redondo",
                "Name[fi]": "David Redondo",
                "Name[fr]": "David Redondo",
                "Name[gl]": "David Redondo",
                "Name[he]": "דיויד רדונדו",
                "Name[hu]": "David Redondo",
                "Name[ia]": "David Redondo",
                "Name[is]": "David Redondo",
                "Name[it]": "David Redondo",
                "Name[ja]": "David Redondo",
                "Name[ka]": "David Redondo",
                "Name[ko]": "David Redondo",
                "Name[lt]": "David Redondo",
                "Name[lv]": "David Redondo",
                "Name[nl]": "David Redondo",
                "Name[nn]": "David Redondo",
                "Name[pl]": "David Redondo",
                "Name[pt]": "David Redondo",
                "Name[pt_BR]": "David Redondo",
                "Name[ro]": "David Redondo",
                "Name[ru]": "David Redondo",
                "Name[sk]": "David Redondo",
                "Name[sl]": "David Redondo",
                "Name[sv]": "David Redondo",
                "Name[ta]": "டேவிட் ரிடொண்டோ",
                "Name[tr]": "David Redondo",
                "Name[uk]": "David Redondo",
                "Name[vi]": "David Redondo",
                "Name[x-test]": "xxDavid Redondoxx",
                "Name[zh_CN]": "David Redondo",
                "Name[zh_TW]": "David Redondo"
            }
        ],
        "Category": "Appearance",
        "Description": "Show screen names",
        "Description[ar]": "أظهر أسماء الشاشات",
        "Description[be]": "Паказваць назвы экранаў",
        "Description[bg]": "Показване на имената на екраните",
        "Description[ca@valencia]": "Mostra el nom de les pantalles",
        "Description[ca]": "Mostra els noms de les pantalles",
        "Description[cs]": "Zobrazit názvy obrazovek:",
        "Description[eo]": "Montri ekranajn nomojn",
        "Description[es]": "Mostrar nombres de las pantallas",
        "Description[eu]": "Erakutsi pantailen izenak",
        "Description[fi]": "Näytä näyttöjen nimet",
        "Description[fr]": "Afficher le nom des écrans",
        "Description[gl]": "Amosar os nomes das pantallas.",
        "Description[he]": "הצגת שמות מסכים",
        "Description[ia]": "Monstra nomines de schermo",
        "Description[it]": "Mostra i nomi degli schermi",
        "Description[ja]": "スクリーンの名前を表示します",
        "Description[ka]": "ეკრანის სახელების ჩვენება",
        "Description[ko]": "화면 이름 표시",
        "Description[lt]": "Rodyti ekranų pavadinimus",
        "Description[nl]": "Schermnamen tonen",
        "Description[pl]": "Pokaż nazwy ekranów",
        "Description[ro]": "Arată denumirile ecranelor",
        "Description[ru]": "Просмотр названий экранов",
        "Description[sl]": "Prikaži imena zaslonov",
        "Description[ta]": "திரைகளின் பெயர்களைக் காட்டும்",
        "Description[tr]": "Ekran adlarını göster",
        "Description[uk]": "Показувати назви екранів",
        "Description[x-test]": "xxShow screen namesxx",
        "Description[zh_CN]": "显示屏幕名称",
        "Description[zh_TW]": "顯示螢幕名稱",
        "EnabledByDefault": true,
        "License": "GPL",
        "Name": "Output Locator",
        "Name[ar]": "محدد مكان الخرج",
        "Name[be]": "Лакатар вываду",
        "Name[bg]": "Локализатор на изхода",
        "Name[ca@valencia]": "Localitzador d'eixides",
        "Name[ca]": "Localitzador de sortides",
        "Name[eo]": "Elig-Lokilo",
        "Name[es]": "Localizador de salidas",
        "Name[eu]": "Irteera kokatzailea",
        "Name[fi]": "Ulostulopaikannin",
        "Name[fr]": "Positionnement de la sortie",
        "Name[gl]": "Localizador de saída",
        "Name[he]": "מאתר פלט",
        "Name[ia]": "Locator de Exito",
        "Name[it]": "Localizzatore uscita",
        "Name[ja]": "出力ロケータ",
        "Name[ka]": "გამოტანის მომძებნი",
        "Name[ko]": "출력 식별기",
        "Name[lt]": "Išvedimo vietos nustatymas",
        "Name[nl]": "Locatie bepalen van uitvoer",
        "Name[pl]": "Namierzanie wyjścia",
        "Name[ru]": "Определение устройства вывода",
        "Name[sl]": "Lokator izhoda",
        "Name[ta]": "திரை கண்டுபிடிப்பி",
        "Name[tr]": "Çıktı Bulucusu",
        "Name[uk]": "Локатор виведення",
        "Name[x-test]": "xxOutput Locatorxx",
        "Name[zh_CN]": "输出定位器",
        "Name[zh_TW]": "輸出位置檢測器"
    },
    "org.kde.kwin.effect": {
        "internal": true
    }
}
